		<NodeSet name="anterior_surface">
			<node id="4441"/>
			<node id="4508"/>
			<node id="4509"/>
			<node id="4510"/>
			<node id="4511"/>
			<node id="4512"/>
			<node id="4513"/>
			<node id="4514"/>
			<node id="4515"/>
			<node id="4516"/>
			<node id="4517"/>
			<node id="4518"/>
			<node id="4519"/>
			<node id="4520"/>
			<node id="4521"/>
			<node id="4522"/>
			<node id="4523"/>
			<node id="4524"/>
			<node id="4525"/>
			<node id="4526"/>
			<node id="4527"/>
			<node id="4528"/>
			<node id="4529"/>
			<node id="4530"/>
			<node id="4531"/>
			<node id="4532"/>
			<node id="4533"/>
			<node id="4534"/>
			<node id="4535"/>
			<node id="4536"/>
			<node id="4537"/>
			<node id="4538"/>
			<node id="4539"/>
			<node id="4540"/>
			<node id="4541"/>
			<node id="4542"/>
			<node id="4543"/>
			<node id="4544"/>
			<node id="4545"/>
			<node id="4546"/>
			<node id="4547"/>
			<node id="4548"/>
			<node id="4549"/>
			<node id="4550"/>
			<node id="4551"/>
			<node id="4552"/>
			<node id="4553"/>
			<node id="4554"/>
			<node id="4555"/>
			<node id="4556"/>
			<node id="4557"/>
			<node id="4558"/>
			<node id="4559"/>
			<node id="4560"/>
			<node id="4561"/>
			<node id="4562"/>
			<node id="4563"/>
			<node id="4564"/>
			<node id="4565"/>
			<node id="4566"/>
			<node id="4567"/>
			<node id="4568"/>
			<node id="4569"/>
			<node id="4570"/>
			<node id="4571"/>
			<node id="4572"/>
			<node id="4573"/>
			<node id="4574"/>
			<node id="4575"/>
			<node id="4576"/>
			<node id="4577"/>
			<node id="4578"/>
			<node id="4604"/>
			<node id="4605"/>
			<node id="4606"/>
			<node id="4716"/>
			<node id="4717"/>
			<node id="4718"/>
			<node id="4719"/>
			<node id="4720"/>
			<node id="4721"/>
			<node id="4722"/>
			<node id="4723"/>
			<node id="4724"/>
			<node id="4725"/>
			<node id="4726"/>
			<node id="4727"/>
			<node id="4728"/>
			<node id="4729"/>
			<node id="4730"/>
			<node id="4731"/>
			<node id="4732"/>
			<node id="4733"/>
			<node id="4878"/>
			<node id="4879"/>
			<node id="4880"/>
			<node id="4881"/>
			<node id="4882"/>
			<node id="4883"/>
			<node id="4884"/>
			<node id="4885"/>
			<node id="4886"/>
			<node id="4887"/>
			<node id="4888"/>
			<node id="4889"/>
			<node id="4890"/>
			<node id="4891"/>
			<node id="4892"/>
			<node id="4893"/>
			<node id="4894"/>
			<node id="4895"/>
			<node id="4896"/>
			<node id="4897"/>
			<node id="4898"/>
			<node id="4899"/>
			<node id="4900"/>
			<node id="4901"/>
			<node id="4902"/>
			<node id="4903"/>
			<node id="4904"/>
			<node id="4905"/>
			<node id="4906"/>
			<node id="4908"/>
			<node id="4910"/>
			<node id="4924"/>
			<node id="4925"/>
			<node id="4926"/>
			<node id="5009"/>
			<node id="5010"/>
			<node id="5029"/>
			<node id="5030"/>
			<node id="5033"/>
			<node id="5046"/>
			<node id="5047"/>
			<node id="5048"/>
			<node id="5053"/>
			<node id="5056"/>
			<node id="5057"/>
			<node id="5140"/>
